\babel@toc {english}{}
\contentsline {chapter}{\numberline {1}Note}{3}{chapter.1}%
\contentsline {chapter}{\numberline {2}Note}{4}{chapter.2}%
\contentsline {chapter}{\numberline {3}Kronecker product module}{5}{chapter.3}%
\contentsline {section}{\numberline {3.1}\sphinxstyleliteralintitle {\sphinxupquote {kron}}}{5}{section.3.1}%
\contentsline {subsection}{\numberline {3.1.1}Matrix classes}{5}{subsection.3.1.1}%
\contentsline {subsubsection}{kron.kron\_matrix}{5}{subsubsection*.4}%
\contentsline {paragraph}{kron.kron\_matrix.\_\_add\_\_}{8}{paragraph*.12}%
\contentsline {paragraph}{kron.kron\_matrix.\_\_matmul\_\_}{8}{paragraph*.14}%
\contentsline {paragraph}{kron.kron\_matrix.\_\_mul\_\_}{8}{paragraph*.16}%
\contentsline {paragraph}{kron.kron\_matrix.\_\_neg\_\_}{9}{paragraph*.18}%
\contentsline {paragraph}{kron.kron\_matrix.\_\_radd\_\_}{9}{paragraph*.20}%
\contentsline {paragraph}{kron.kron\_matrix.\_\_rmatmul\_\_}{9}{paragraph*.22}%
\contentsline {paragraph}{kron.kron\_matrix.\_\_rmul\_\_}{9}{paragraph*.24}%
\contentsline {paragraph}{kron.kron\_matrix.\_\_rsub\_\_}{9}{paragraph*.26}%
\contentsline {paragraph}{kron.kron\_matrix.\_\_sub\_\_}{9}{paragraph*.28}%
\contentsline {paragraph}{kron.kron\_matrix.asformat}{9}{paragraph*.30}%
\contentsline {paragraph}{kron.kron\_matrix.assemble}{10}{paragraph*.32}%
\contentsline {paragraph}{kron.kron\_matrix.cfsplit}{10}{paragraph*.34}%
\contentsline {paragraph}{kron.kron\_matrix.copy}{10}{paragraph*.36}%
\contentsline {paragraph}{kron.kron\_matrix.diagonal}{11}{paragraph*.38}%
\contentsline {paragraph}{kron.kron\_matrix.dot}{11}{paragraph*.40}%
\contentsline {paragraph}{kron.kron\_matrix.eliminate\_zeros}{11}{paragraph*.42}%
\contentsline {paragraph}{kron.kron\_matrix.getformat}{11}{paragraph*.44}%
\contentsline {paragraph}{kron.kron\_matrix.getklayer}{11}{paragraph*.46}%
\contentsline {paragraph}{kron.kron\_matrix.matmat}{12}{paragraph*.48}%
\contentsline {paragraph}{kron.kron\_matrix.matvec}{12}{paragraph*.50}%
\contentsline {paragraph}{kron.kron\_matrix.multiply}{12}{paragraph*.52}%
\contentsline {paragraph}{kron.kron\_matrix.rdot}{12}{paragraph*.54}%
\contentsline {paragraph}{kron.kron\_matrix.rmatmat}{12}{paragraph*.56}%
\contentsline {paragraph}{kron.kron\_matrix.rmatvec}{12}{paragraph*.58}%
\contentsline {paragraph}{kron.kron\_matrix.sum}{13}{paragraph*.60}%
\contentsline {paragraph}{kron.kron\_matrix.toarray}{13}{paragraph*.62}%
\contentsline {paragraph}{kron.kron\_matrix.tobsr}{13}{paragraph*.64}%
\contentsline {paragraph}{kron.kron\_matrix.tocoo}{13}{paragraph*.66}%
\contentsline {paragraph}{kron.kron\_matrix.tocsc}{13}{paragraph*.68}%
\contentsline {paragraph}{kron.kron\_matrix.tocsr}{13}{paragraph*.70}%
\contentsline {paragraph}{kron.kron\_matrix.todense}{14}{paragraph*.72}%
\contentsline {paragraph}{kron.kron\_matrix.todia}{14}{paragraph*.74}%
\contentsline {paragraph}{kron.kron\_matrix.todok}{14}{paragraph*.76}%
\contentsline {paragraph}{kron.kron\_matrix.tolil}{14}{paragraph*.78}%
\contentsline {paragraph}{kron.kron\_matrix.transpose}{14}{paragraph*.80}%
\contentsline {paragraph}{kron.kron\_matrix.withformat}{14}{paragraph*.82}%
\contentsline {subsubsection}{kron.kronsum\_matrix}{15}{subsubsection*.84}%
\contentsline {paragraph}{kron.kronsum\_matrix.\_\_add\_\_}{17}{paragraph*.93}%
\contentsline {paragraph}{kron.kronsum\_matrix.\_\_matmul\_\_}{17}{paragraph*.95}%
\contentsline {paragraph}{kron.kronsum\_matrix.\_\_mul\_\_}{18}{paragraph*.97}%
\contentsline {paragraph}{kron.kronsum\_matrix.\_\_neg\_\_}{18}{paragraph*.99}%
\contentsline {paragraph}{kron.kronsum\_matrix.\_\_radd\_\_}{18}{paragraph*.101}%
\contentsline {paragraph}{kron.kronsum\_matrix.\_\_rmatmul\_\_}{18}{paragraph*.103}%
\contentsline {paragraph}{kron.kronsum\_matrix.\_\_rmul\_\_}{18}{paragraph*.105}%
\contentsline {paragraph}{kron.kronsum\_matrix.\_\_rsub\_\_}{18}{paragraph*.107}%
\contentsline {paragraph}{kron.kronsum\_matrix.\_\_sub\_\_}{19}{paragraph*.109}%
\contentsline {paragraph}{kron.kronsum\_matrix.asformat}{19}{paragraph*.111}%
\contentsline {paragraph}{kron.kronsum\_matrix.assemble}{19}{paragraph*.113}%
\contentsline {paragraph}{kron.kronsum\_matrix.cfsplit}{20}{paragraph*.115}%
\contentsline {paragraph}{kron.kronsum\_matrix.copy}{20}{paragraph*.117}%
\contentsline {paragraph}{kron.kronsum\_matrix.diagonal}{20}{paragraph*.119}%
\contentsline {paragraph}{kron.kronsum\_matrix.dot}{20}{paragraph*.121}%
\contentsline {paragraph}{kron.kronsum\_matrix.eliminate\_zeros}{20}{paragraph*.123}%
\contentsline {paragraph}{kron.kronsum\_matrix.getklayer}{20}{paragraph*.125}%
\contentsline {paragraph}{kron.kronsum\_matrix.matmat}{21}{paragraph*.127}%
\contentsline {paragraph}{kron.kronsum\_matrix.matvec}{21}{paragraph*.129}%
\contentsline {paragraph}{kron.kronsum\_matrix.multiply}{21}{paragraph*.131}%
\contentsline {paragraph}{kron.kronsum\_matrix.rdot}{21}{paragraph*.133}%
\contentsline {paragraph}{kron.kronsum\_matrix.rmatmat}{21}{paragraph*.135}%
\contentsline {paragraph}{kron.kronsum\_matrix.rmatvec}{21}{paragraph*.137}%
\contentsline {paragraph}{kron.kronsum\_matrix.sum}{22}{paragraph*.139}%
\contentsline {paragraph}{kron.kronsum\_matrix.toarray}{22}{paragraph*.141}%
\contentsline {paragraph}{kron.kronsum\_matrix.tobsr}{22}{paragraph*.143}%
\contentsline {paragraph}{kron.kronsum\_matrix.tocoo}{22}{paragraph*.145}%
\contentsline {paragraph}{kron.kronsum\_matrix.tocsc}{22}{paragraph*.147}%
\contentsline {paragraph}{kron.kronsum\_matrix.tocsr}{22}{paragraph*.149}%
\contentsline {paragraph}{kron.kronsum\_matrix.todense}{23}{paragraph*.151}%
\contentsline {paragraph}{kron.kronsum\_matrix.todia}{23}{paragraph*.153}%
\contentsline {paragraph}{kron.kronsum\_matrix.todok}{23}{paragraph*.155}%
\contentsline {paragraph}{kron.kronsum\_matrix.tolil}{23}{paragraph*.157}%
\contentsline {paragraph}{kron.kronsum\_matrix.transpose}{23}{paragraph*.159}%
\contentsline {subsubsection}{kron.kronblock\_matrix}{23}{subsubsection*.161}%
\contentsline {paragraph}{kron.kronblock\_matrix.\_\_add\_\_}{26}{paragraph*.171}%
\contentsline {paragraph}{kron.kronblock\_matrix.\_\_matmul\_\_}{26}{paragraph*.173}%
\contentsline {paragraph}{kron.kronblock\_matrix.\_\_mul\_\_}{26}{paragraph*.175}%
\contentsline {paragraph}{kron.kronblock\_matrix.\_\_neg\_\_}{27}{paragraph*.177}%
\contentsline {paragraph}{kron.kronblock\_matrix.\_\_radd\_\_}{27}{paragraph*.179}%
\contentsline {paragraph}{kron.kronblock\_matrix.\_\_rmatmul\_\_}{27}{paragraph*.181}%
\contentsline {paragraph}{kron.kronblock\_matrix.\_\_rmul\_\_}{27}{paragraph*.183}%
\contentsline {paragraph}{kron.kronblock\_matrix.\_\_rsub\_\_}{27}{paragraph*.185}%
\contentsline {paragraph}{kron.kronblock\_matrix.\_\_sub\_\_}{27}{paragraph*.187}%
\contentsline {paragraph}{kron.kronblock\_matrix.ascollection}{27}{paragraph*.189}%
\contentsline {paragraph}{kron.kronblock\_matrix.asformat}{28}{paragraph*.191}%
\contentsline {paragraph}{kron.kronblock\_matrix.assemble}{28}{paragraph*.193}%
\contentsline {paragraph}{kron.kronblock\_matrix.cfsplit}{29}{paragraph*.195}%
\contentsline {paragraph}{kron.kronblock\_matrix.copy}{29}{paragraph*.197}%
\contentsline {paragraph}{kron.kronblock\_matrix.diagonal}{29}{paragraph*.199}%
\contentsline {paragraph}{kron.kronblock\_matrix.dot}{29}{paragraph*.201}%
\contentsline {paragraph}{kron.kronblock\_matrix.eliminate\_zeros}{29}{paragraph*.203}%
\contentsline {paragraph}{kron.kronblock\_matrix.getklayer}{29}{paragraph*.205}%
\contentsline {paragraph}{kron.kronblock\_matrix.hascollections}{30}{paragraph*.207}%
\contentsline {paragraph}{kron.kronblock\_matrix.iscollection}{30}{paragraph*.209}%
\contentsline {paragraph}{kron.kronblock\_matrix.matmat}{30}{paragraph*.211}%
\contentsline {paragraph}{kron.kronblock\_matrix.matvec}{30}{paragraph*.213}%
\contentsline {paragraph}{kron.kronblock\_matrix.multiply}{30}{paragraph*.215}%
\contentsline {paragraph}{kron.kronblock\_matrix.rdot}{31}{paragraph*.217}%
\contentsline {paragraph}{kron.kronblock\_matrix.rmatmat}{31}{paragraph*.219}%
\contentsline {paragraph}{kron.kronblock\_matrix.rmatvec}{31}{paragraph*.221}%
\contentsline {paragraph}{kron.kronblock\_matrix.sum}{31}{paragraph*.223}%
\contentsline {paragraph}{kron.kronblock\_matrix.toarray}{31}{paragraph*.225}%
\contentsline {paragraph}{kron.kronblock\_matrix.tobsr}{31}{paragraph*.227}%
\contentsline {paragraph}{kron.kronblock\_matrix.tocoo}{32}{paragraph*.229}%
\contentsline {paragraph}{kron.kronblock\_matrix.tocsc}{32}{paragraph*.231}%
\contentsline {paragraph}{kron.kronblock\_matrix.tocsr}{32}{paragraph*.233}%
\contentsline {paragraph}{kron.kronblock\_matrix.todense}{32}{paragraph*.235}%
\contentsline {paragraph}{kron.kronblock\_matrix.todia}{32}{paragraph*.237}%
\contentsline {paragraph}{kron.kronblock\_matrix.todok}{32}{paragraph*.239}%
\contentsline {paragraph}{kron.kronblock\_matrix.tolil}{33}{paragraph*.241}%
\contentsline {paragraph}{kron.kronblock\_matrix.transpose}{33}{paragraph*.243}%
\contentsline {subsubsection}{kron.block\_matrix}{33}{subsubsection*.245}%
\contentsline {paragraph}{kron.block\_matrix.\_\_add\_\_}{35}{paragraph*.254}%
\contentsline {paragraph}{kron.block\_matrix.\_\_matmul\_\_}{36}{paragraph*.256}%
\contentsline {paragraph}{kron.block\_matrix.\_\_mul\_\_}{36}{paragraph*.258}%
\contentsline {paragraph}{kron.block\_matrix.\_\_neg\_\_}{36}{paragraph*.260}%
\contentsline {paragraph}{kron.block\_matrix.\_\_radd\_\_}{36}{paragraph*.262}%
\contentsline {paragraph}{kron.block\_matrix.\_\_rmatmul\_\_}{36}{paragraph*.264}%
\contentsline {paragraph}{kron.block\_matrix.\_\_rmul\_\_}{37}{paragraph*.266}%
\contentsline {paragraph}{kron.block\_matrix.\_\_rsub\_\_}{37}{paragraph*.268}%
\contentsline {paragraph}{kron.block\_matrix.\_\_sub\_\_}{37}{paragraph*.270}%
\contentsline {paragraph}{kron.block\_matrix.ascollection}{37}{paragraph*.272}%
\contentsline {paragraph}{kron.block\_matrix.asformat}{37}{paragraph*.274}%
\contentsline {paragraph}{kron.block\_matrix.assemble}{38}{paragraph*.276}%
\contentsline {paragraph}{kron.block\_matrix.cfsplit}{38}{paragraph*.278}%
\contentsline {paragraph}{kron.block\_matrix.copy}{38}{paragraph*.280}%
\contentsline {paragraph}{kron.block\_matrix.diagonal}{38}{paragraph*.282}%
\contentsline {paragraph}{kron.block\_matrix.dot}{38}{paragraph*.284}%
\contentsline {paragraph}{kron.block\_matrix.eliminate\_zeros}{39}{paragraph*.286}%
\contentsline {paragraph}{kron.block\_matrix.getklayer}{39}{paragraph*.288}%
\contentsline {paragraph}{kron.block\_matrix.hascollections}{39}{paragraph*.290}%
\contentsline {paragraph}{kron.block\_matrix.iscollection}{39}{paragraph*.292}%
\contentsline {paragraph}{kron.block\_matrix.matmat}{39}{paragraph*.294}%
\contentsline {paragraph}{kron.block\_matrix.matvec}{40}{paragraph*.296}%
\contentsline {paragraph}{kron.block\_matrix.multiply}{40}{paragraph*.298}%
\contentsline {paragraph}{kron.block\_matrix.rdot}{40}{paragraph*.300}%
\contentsline {paragraph}{kron.block\_matrix.rmatmat}{40}{paragraph*.302}%
\contentsline {paragraph}{kron.block\_matrix.rmatvec}{40}{paragraph*.304}%
\contentsline {paragraph}{kron.block\_matrix.sum}{40}{paragraph*.306}%
\contentsline {paragraph}{kron.block\_matrix.toarray}{41}{paragraph*.308}%
\contentsline {paragraph}{kron.block\_matrix.tobsr}{41}{paragraph*.310}%
\contentsline {paragraph}{kron.block\_matrix.tocoo}{41}{paragraph*.312}%
\contentsline {paragraph}{kron.block\_matrix.tocsc}{41}{paragraph*.314}%
\contentsline {paragraph}{kron.block\_matrix.tocsr}{41}{paragraph*.316}%
\contentsline {paragraph}{kron.block\_matrix.todense}{41}{paragraph*.318}%
\contentsline {paragraph}{kron.block\_matrix.todia}{42}{paragraph*.320}%
\contentsline {paragraph}{kron.block\_matrix.todok}{42}{paragraph*.322}%
\contentsline {paragraph}{kron.block\_matrix.tolil}{42}{paragraph*.324}%
\contentsline {paragraph}{kron.block\_matrix.transpose}{42}{paragraph*.326}%
\contentsline {subsection}{\numberline {3.1.2}Construction functions}{42}{subsection.3.1.2}%
\contentsline {subsubsection}{kron.kron}{43}{subsubsection*.328}%
\contentsline {subsubsection}{kron.block}{43}{subsubsection*.330}%
\contentsline {subsubsection}{kron.hstack}{44}{subsubsection*.332}%
\contentsline {subsubsection}{kron.vstack}{44}{subsubsection*.334}%
\contentsline {subsubsection}{kron.blockedkron}{44}{subsubsection*.336}%
\contentsline {subsubsection}{kron.diag}{45}{subsubsection*.338}%
\contentsline {subsubsection}{kron.eye}{45}{subsubsection*.340}%
\contentsline {subsubsection}{kron.zeros}{46}{subsubsection*.342}%
\contentsline {subsubsection}{kron.ones}{46}{subsubsection*.344}%
\contentsline {subsection}{\numberline {3.1.3}Type identification functions}{46}{subsection.3.1.3}%
\contentsline {subsubsection}{kron.iskronrelated}{47}{subsubsection*.346}%
\contentsline {subsubsection}{kron.iskronshaped}{47}{subsubsection*.348}%
\contentsline {subsubsection}{kron.iskron}{47}{subsubsection*.350}%
\contentsline {subsubsection}{kron.iskronsum}{47}{subsubsection*.352}%
\contentsline {subsubsection}{kron.isblock}{48}{subsubsection*.354}%
\contentsline {subsubsection}{kron.iskronblock}{48}{subsubsection*.356}%
\contentsline {subsection}{\numberline {3.1.4}Inheritance diagram}{48}{subsection.3.1.4}%
\contentsline {section}{\numberline {3.2}\sphinxstyleliteralintitle {\sphinxupquote {kron.utils}}}{48}{section.3.2}%
\contentsline {subsection}{\numberline {3.2.1}Functions}{48}{subsection.3.2.1}%
\contentsline {subsubsection}{kron.utils.tosparray}{49}{subsubsection*.359}%
\contentsline {subsubsection}{kron.utils.patch\_scipy\_array\_priority}{49}{subsubsection*.361}%
\contentsline {subsection}{\numberline {3.2.2}Matrix collection}{50}{subsection.3.2.2}%
\contentsline {subsubsection}{kron.utils.MatrixCollection}{50}{subsubsection*.363}%
\contentsline {paragraph}{kron.utils.MatrixCollection.\_\_add\_\_}{51}{paragraph*.369}%
\contentsline {paragraph}{kron.utils.MatrixCollection.\_\_matmul\_\_}{51}{paragraph*.371}%
\contentsline {paragraph}{kron.utils.MatrixCollection.\_\_mul\_\_}{51}{paragraph*.373}%
\contentsline {paragraph}{kron.utils.MatrixCollection.\_\_radd\_\_}{51}{paragraph*.375}%
\contentsline {paragraph}{kron.utils.MatrixCollection.\_\_rmatmul\_\_}{51}{paragraph*.377}%
\contentsline {paragraph}{kron.utils.MatrixCollection.\_\_rmul\_\_}{52}{paragraph*.379}%
\contentsline {paragraph}{kron.utils.MatrixCollection.append}{52}{paragraph*.381}%
\contentsline {subsubsection}{kron.utils.iscollection}{52}{subsubsection*.383}%
\providecommand \tocbasic@end@toc@file {}\tocbasic@end@toc@file 
